<svg width="218" height="46" viewBox="0 0 218 46" fill="none" xmlns="http://www.w3.org/2000/svg">
<path d="M49.3375 14.8586L54.4295 31.8863L59.5058 14.8586H66.7443V39.3328H61.2293V33.6176L61.762 21.9185L56.247 39.3328H52.6121L47.0814 21.9017L47.6141 33.6176V39.3328H42.1147V14.8586H49.3375Z" fill="#808080"/>
<path d="M89.5721 27.6C89.5721 29.9869 89.1595 32.0992 88.3344 33.937C87.5092 35.7748 86.3341 37.1924 84.8091 38.1897C83.2946 39.1759 81.5659 39.6689 79.6231 39.6689C77.6803 39.6689 75.9569 39.1927 74.4528 38.2402C72.9487 37.2764 71.7736 35.9037 70.9276 34.1219C70.092 32.3401 69.6533 30.295 69.6115 27.9866V26.6082C69.6115 24.2101 70.0188 22.0978 70.8336 20.2712C71.6587 18.4334 72.8338 17.0158 74.3588 16.0184C75.8942 15.0211 77.6386 14.5224 79.5918 14.5224C81.5241 14.5224 83.2476 15.0155 84.7621 16.0016C86.2767 16.9878 87.4517 18.3941 88.2873 20.2207C89.1334 22.0361 89.5617 24.1205 89.5721 26.4737V27.6ZM83.9787 26.5746C83.9787 24.1429 83.5975 22.2995 82.835 21.0444C82.083 19.7781 81.0019 19.1449 79.5918 19.1449C76.8343 19.1449 75.3772 21.3638 75.2205 25.8014L75.2048 27.6C75.2048 29.9981 75.5756 31.8415 76.3172 33.1302C77.0588 34.4189 78.1608 35.0632 79.6231 35.0632C81.0123 35.0632 82.083 34.4301 82.835 33.1638C83.587 31.8975 83.9683 30.0765 83.9787 27.7008V26.5746Z" fill="#808080"/>
<path d="M100.915 32.6763L105.459 14.8586H111.601L103.924 39.3328H97.9073L90.2928 14.8586H96.3875L100.915 32.6763Z" fill="#808080"/>
<path d="M119.137 39.3328H113.653V14.8586H119.137V39.3328Z" fill="#808080"/>
<path d="M137.108 28.9615H128.459V34.7943H138.675V39.3328H122.96V14.8586H138.706V19.4139H128.459V24.5743H137.108V28.9615Z" fill="#808080"/>
<path d="M159.372 31.0458C159.298 32.7492 158.87 34.2564 158.087 35.5675C157.303 36.8674 156.201 37.876 154.781 38.5932C153.371 39.3104 151.757 39.6689 149.94 39.6689C146.942 39.6689 144.581 38.6212 142.858 36.5256C141.134 34.4301 140.273 31.4717 140.273 27.6504V26.4401C140.273 24.042 140.659 21.9465 141.432 20.1535C142.215 18.3493 143.338 16.9598 144.801 15.9848C146.263 14.9987 147.955 14.5056 149.877 14.5056C152.645 14.5056 154.87 15.29 156.551 16.8589C158.233 18.4165 159.189 20.5681 159.419 23.3136H153.935C153.893 21.8232 153.543 20.753 152.885 20.1031C152.227 19.4531 151.224 19.1281 149.877 19.1281C148.509 19.1281 147.506 19.6772 146.869 20.7754C146.232 21.8736 145.897 23.6274 145.866 26.0367V27.7681C145.866 30.3791 146.169 32.2449 146.775 33.3655C147.391 34.4861 148.446 35.0464 149.94 35.0464C151.203 35.0464 152.17 34.7271 152.838 34.0883C153.507 33.4496 153.862 32.4354 153.904 31.0458H159.372Z" fill="#808080"/>
<path d="M167.472 34.7943H177.045V39.3328H161.972V14.8586H167.472V34.7943Z" fill="#808080"/>
<path d="M196.88 14.8586V30.8778C196.88 32.6931 196.52 34.2676 195.799 35.6011C195.078 36.9235 194.044 37.932 192.697 38.6268C191.349 39.3216 189.756 39.6689 187.918 39.6689C185.14 39.6689 182.951 38.8957 181.353 37.3493C179.755 35.8028 178.941 33.6849 178.909 30.9954V14.8586H184.44V31.1131C184.503 33.7913 185.662 35.1305 187.918 35.1305C189.057 35.1305 189.918 34.7943 190.503 34.1219C191.088 33.4496 191.381 32.357 191.381 30.8441V14.8586H196.88Z" fill="#808080"/>
<path d="M200.327 39.3328V14.8586H208.521C211.456 14.8586 213.686 15.4357 215.211 16.59C216.747 17.7442 217.514 19.4195 217.514 21.6159C217.514 22.8822 217.243 23.9636 216.7 24.8601C216.156 25.7566 215.357 26.4177 214.302 26.8435C215.493 27.1797 216.407 27.8073 217.044 28.7262C217.681 29.6451 218 30.7657 218 32.088C218 34.4861 217.29 36.2903 215.869 37.5006C214.459 38.6996 212.365 39.3104 209.586 39.3328H200.327ZM205.826 28.9279V34.7943H209.43C210.422 34.7943 211.185 34.5534 211.717 34.0715C212.25 33.5784 212.516 32.8892 212.516 32.004C212.516 29.9645 211.571 28.9391 209.68 28.9279H205.826ZM205.826 25.0618H208.693C209.895 25.0506 210.751 24.8152 211.263 24.3558C211.775 23.8963 212.031 23.2184 212.031 22.3219C212.031 21.2909 211.754 20.5513 211.2 20.1031C210.647 19.6436 209.754 19.4139 208.521 19.4139H205.826V25.0618Z" fill="#808080"/>
<path d="M11.3242 14.7134C11.652 14.7134 11.9177 14.4183 11.9177 14.0541V12.8327C11.9177 12.4686 11.652 12.1734 11.3242 12.1734C10.9964 12.1734 10.7306 12.4686 10.7306 12.8327V14.0541C10.7305 14.4183 10.9963 14.7134 11.3242 14.7134Z" fill="#808080"/>
<path d="M22.7686 14.7134C23.0964 14.7134 23.3621 14.4183 23.3621 14.0541V12.8327C23.3621 12.4686 23.0964 12.1734 22.7686 12.1734C22.4409 12.1734 22.1752 12.4686 22.1752 12.8327V14.0541C22.1752 14.4183 22.4409 14.7134 22.7686 14.7134Z" fill="#808080"/>
<path d="M19.0025 14.4506C19.2178 14.1761 19.1921 13.7597 18.945 13.5206C18.6979 13.2815 18.3229 13.31 18.1076 13.5845C17.5466 14.2993 16.5477 14.3014 15.9851 13.5845C15.7698 13.31 15.3948 13.2815 15.1477 13.5206C14.9005 13.7597 14.8748 14.1761 15.0902 14.4506C16.1254 15.7697 17.9684 15.7683 19.0025 14.4506V14.4506Z" fill="#808080"/>
<path d="M7.91496 2.78578C7.83266 2.69271 7.77252 2.57705 7.74103 2.45102C7.46833 1.35998 6.44355 0.702752 5.45644 0.98619C5.34486 1.01853 5.22378 1.0195 5.10801 0.98619C4.12082 0.703015 3.09603 1.36006 2.82342 2.45102C2.81448 2.47448 2.78354 2.63426 2.64956 2.78578C1.93554 3.5933 1.93554 4.90731 2.64956 5.71491C2.73186 5.80798 2.79192 5.92364 2.82342 6.04967C3.09603 7.14071 4.12097 7.79794 5.10801 7.5145C5.13064 7.51134 5.26952 7.46168 5.45367 7.51371C6.45716 7.79829 7.46841 7.13315 7.74111 6.04923C7.77252 5.92355 7.83258 5.80789 7.91488 5.71482C8.62899 4.90739 8.62899 3.59338 7.91496 2.78578V2.78578ZM7.06799 4.79129C6.84602 5.04239 6.68364 5.35413 6.59834 5.69302C6.49364 6.10654 6.11657 6.34111 5.75327 6.2381C5.23407 6.08913 4.80121 6.23986 4.8092 6.23872C4.44526 6.34216 4.06788 6.09942 3.96722 5.69689C3.88215 5.35659 3.71945 5.04344 3.49661 4.79129C3.23294 4.493 3.23294 4.00777 3.49661 3.70948C3.8721 3.28472 3.97117 2.79272 3.96785 2.80151C4.0693 2.39978 4.44708 2.15809 4.81142 2.26267C5.11948 2.35109 5.44528 2.35109 5.75335 2.26267C6.1153 2.15782 6.49617 2.39864 6.59746 2.80389C6.68253 3.14419 6.84523 3.45733 7.06807 3.7094C7.33167 4.00777 7.33167 4.493 7.06799 4.79129V4.79129Z" fill="#808080"/>
<path d="M34.0929 21.0215C34.0929 19.6007 33.4084 18.3543 32.3865 17.6675C32.2959 15.363 30.9441 13.3773 28.9659 12.6539C28.8564 12.2851 28.7101 11.9309 28.5342 11.596C29.6009 11.2475 29.8298 10.1392 29.825 10.148C29.8565 10.023 29.9165 9.90807 29.9983 9.81543C30.7122 9.00789 30.7122 7.69383 29.9983 6.88619C29.916 6.79312 29.8559 6.67745 29.8244 6.55141C29.5518 5.46033 28.527 4.80317 27.5399 5.08653C27.4215 5.1194 27.3058 5.11896 27.1937 5.08724C26.2474 4.79816 25.1864 5.43247 24.9068 6.5515C24.8983 6.57374 24.8671 6.73449 24.7329 6.88628C24.2654 7.41503 24.1061 8.16062 24.2509 8.83931C23.9849 8.83755 23.7181 8.85926 23.4516 8.90541C21.8871 6.79892 19.1682 6.26559 17.0464 7.66385C14.9319 6.27043 12.2113 6.79153 10.6414 8.90532C8.23199 8.48924 5.89012 10.0794 5.12712 12.6537C3.14887 13.3771 1.79696 15.363 1.70643 17.6674C0.684503 18.3543 0 19.6007 0 21.0215C0 22.6513 0.900932 24.0514 2.17862 24.6409L4.27557 40.2945C4.71072 43.5397 7.22542 45.9203 10.1507 45.9203C13.4935 45.9203 22.3403 45.9184 24.1864 45.914C27.03 45.7856 29.3978 43.4231 29.8175 40.2944L31.9144 24.6409C33.192 24.0514 34.0929 22.6513 34.0929 21.0215V21.0215ZM25.5799 7.80984C25.9554 7.38506 26.0544 6.89305 26.0511 6.90184C26.1523 6.50079 26.529 6.25918 26.8925 6.36236C26.9556 6.37124 27.3349 6.50703 27.8365 6.36298C27.8373 6.3628 27.838 6.36254 27.8386 6.36236C28.2024 6.259 28.58 6.50167 28.6806 6.90421C28.7656 7.24461 28.9283 7.55777 29.1512 7.80975C29.4149 8.10806 29.4149 8.59339 29.1512 8.89169C28.9284 9.14377 28.7656 9.45692 28.6807 9.79724C28.5643 10.2281 28.1831 10.437 27.8387 10.3392C27.4759 10.2362 27.1859 10.2618 26.8241 10.3546C26.4046 10.4243 26.1641 10.0577 26.172 10.0643C26.0683 9.91739 26.0525 9.79267 26.0171 9.67859C25.9293 9.39382 25.7787 9.1167 25.5799 8.89178C25.3162 8.59348 25.3162 8.10814 25.5799 7.80984V7.80984ZM2.94882 17.1561C3.20782 15.5624 4.2709 14.2536 5.73439 13.8286L5.74927 13.8243C6.16741 13.7028 6.18703 13.2408 6.23404 13.1376C6.80142 11.1034 8.65298 9.8505 10.5406 10.2232C10.6479 10.2232 11.0493 10.4293 11.3381 10.0396L11.5546 9.74749C12.76 8.12133 14.8174 7.72353 16.4467 8.80152L16.7427 8.99743C16.9298 9.12127 17.163 9.12127 17.3502 8.99743L17.6462 8.80152C19.2754 7.72344 21.3328 8.12124 22.5383 9.7474L22.7548 10.0396C23.0429 10.4281 23.4512 10.2232 23.5524 10.2231C24.0127 10.1323 24.4745 10.1354 24.9289 10.2319C25.2182 11.2288 26.1628 11.8592 27.1118 11.6358C27.7428 12.4536 27.8789 13.2496 27.9271 13.3817C27.9856 13.5916 28.1336 13.7634 28.3587 13.8287C29.822 14.2537 30.8851 15.5624 31.144 17.1561C30.9706 17.1245 30.7557 17.1037 30.5656 17.1037C2.31655 17.1057 3.39402 17.075 2.94882 17.1561ZM1.18692 21.0215C1.18692 19.9634 1.75937 19.0517 2.578 18.6464C3.228 18.3247 1.94027 18.4235 30.5656 18.4221C31.8472 18.4221 32.9059 19.5808 32.9059 21.0214C32.9059 22.2079 32.1861 23.2106 31.2062 23.5209C30.6906 23.6837 32.4169 23.6208 3.52729 23.6208C2.12781 23.5883 1.18692 22.365 1.18692 21.0215V21.0215ZM19.1338 44.6019H14.9591C14.9545 44.403 14.5234 25.8692 14.5018 24.9392H19.5911C19.5851 25.1955 19.1625 43.364 19.1338 44.6019ZM5.44951 40.1005L3.41832 24.9374C3.53536 24.9414 3.38239 24.9386 7.50041 24.9392L8.43545 35.2745C8.46821 35.6367 8.75926 35.9006 9.08529 35.8645C9.4114 35.8282 9.64927 35.505 9.61651 35.1427L8.69342 24.9392H13.3143C13.3189 25.1381 13.75 43.6719 13.7716 44.6019H10.4722L9.85502 37.7795C9.82226 37.4173 9.53144 37.1526 9.20517 37.1895C8.87907 37.2259 8.64119 37.5491 8.67395 37.9114L9.27093 44.5107C7.30898 44.1016 5.75101 42.3481 5.44951 40.1005V40.1005ZM30.6745 24.9374L28.6433 40.1004C28.3418 42.3481 26.7838 44.1016 24.8219 44.5108L25.9254 32.3124C25.9582 31.9501 25.7204 31.627 25.3942 31.5906C25.0677 31.554 24.7771 31.8183 24.7443 32.1806L23.6207 44.6019H20.3212C20.3271 44.3456 20.7497 26.1772 20.7785 24.9392H25.3994L24.9828 29.5438C24.9401 30.0162 25.3468 30.3778 25.7487 30.2399C25.9698 30.164 26.1393 29.9474 26.1639 29.6756L26.5924 24.9392C30.7938 24.9385 30.573 24.9408 30.6745 24.9374V24.9374Z" fill="#808080"/>
</svg>
